<svg width="21" height="20" viewBox="0 0 21 20" fill="none" xmlns="http://www.w3.org/2000/svg">
<path d="M8.96289 11.8734L12.2932 9.99994L8.96289 8.12646V11.8734Z" fill="white"/>
<path d="M10.2381 0C4.58462 0 0 4.478 0 10C0 15.522 4.58462 20 10.2381 20C15.8916 20 20.4762 15.522 20.4762 10C20.4762 4.478 15.8916 0 10.2381 0ZM16.6353 10.0102C16.6353 10.0102 16.6353 12.0383 16.372 13.0162C16.2243 13.5515 15.7922 13.9735 15.2442 14.1176C14.243 14.375 10.2381 14.375 10.2381 14.375C10.2381 14.375 6.24368 14.375 5.232 14.1074C4.68397 13.9633 4.25187 13.5411 4.10424 13.0058C3.84069 12.0383 3.84069 10 3.84069 10C3.84069 10 3.84069 7.97211 4.10424 6.99417C4.25171 6.45889 4.69444 6.02646 5.232 5.88242C6.23322 5.625 10.2381 5.625 10.2381 5.625C10.2381 5.625 14.243 5.625 15.2442 5.89264C15.7922 6.03668 16.2243 6.45889 16.372 6.99417C16.646 7.97211 16.6353 10.0102 16.6353 10.0102Z" fill="white"/>
</svg>
